…
As with districts, this function should take the number of parties as
it’s only argument. The default implementation assumes parties are
ordered from large to small, and generates semi-consistent results
across each district. Note that vote shares should sum to 1 in each
district, the `simulate_shares` function has an optional `normalize`
argument that will enforce this requirement for you.

``` r
# generate vote shares for districts generated above
vote_shares <- simulate_shares(12, districts$district)
vote_shares
#> # A tibble: 156 × 3
#>    district   party vote_share
#>    <chr>      <int>      <dbl>
#>  1 District 1     1   0.249   
#>  2 District 1     2   0.145   
#>  3 District 1     3   0.105   
#>  4 District 1     4   0.132   
#>  5 District 1     5   0.160   
#>  6 District 1     6   0.136   
#>  7 District 1     7   0.0182  
#>  8 District 1     8   0.0226  
#>  9 District 1     9   0.0292  
#> 10 District 1    10   0.000641
#> # ℹ 146 more rows

# we can specify party names, and override the vote share function.
# using a uniform distribution and normalizing manually
simulate_shares(c("Green", "Red", "Blue", "Polka dots"), districts$district, func = \(x) {
  shares <- runif(x)
  shares / sum(shares)
})
#> # A tibble: 52 × 3
#>    district   party      vote_share
#>    <chr>      <chr>           <dbl>
#>  1 District 1 Green          0.199 
#>  2 District 1 Red            0.205 
#>  3 District 1 Blue           0.322 
#>  4 District 1 Polka dots     0.274 
#>  5 District 2 Green          0.272 
#>  6 District 2 Red            0.287 
#>  7 District 2 Blue           0.427 
#>  8 District 2 Polka dots     0.0148
#>  9 District 3 Green          0.144 
#> 10 District 3 Red            0.0797
#> # ℹ 42 more rows

# a deterministic linear vote share, letting `simulate_shares` normalize for us
simulate_shares(16, 12, \(x) x:1, normalize = TRUE)
#> # A tibble: 192 × 3
#>    district party vote_share
#>       <int> <int>      <dbl>
#>  1        1     1     0.118 
#>  2        1     2     0.110 
#>  3        1     3     0.103 
#>  4        1     4     0.0956
#>  5        1     5     0.0882
#>  6        1     6     0.0809
#>  7        1     7     0.0735
#>  8        1     8     0.0662
#>  9        1     9     0.0588
#> 10        1    10     0.0515
#> # ℹ 182 more rows
```
…
  # map allocation function to each row (district)
  purrr::pmap(\(district, seats, data, ...) {
    allocate_seats(data$party, data$vote_count, seats) %>% 
      mutate(district)
  }) %>% 
  
  # combine the list of per-district results back into a single tibble
  purrr::list_rbind()
#> Joining with `by = join_by(district)`

# long format of per party, per district votes and seats
district_seats
#> # A tibble: 156 × 8
#>    party   votes seats fixed_seats allocated_seats ideal_seats eligible district
#>    <int>   <dbl> <int>       <dbl>           <dbl>       <dbl> <lgl>    <chr>   
#>  1     1 173721.     3           0               3     1.99    TRUE     Distric…
#>  2     2 101557.     1           0               1     1.16    TRUE     Distric…
#>  3     3  73439.     1           0               1     0.841   TRUE     Distric…
#>  4     4  91939.     1           0               1     1.05    TRUE     Distric…
#>  5     5 112007.     1           0               1     1.28    TRUE     Distric…
#>  6     6  95275.     1           0               1     1.09    TRUE     Distric…
#>  7     7  12737.     0           0               0     0.146   TRUE     Distric…
#>  8     8  15784.     0           0               0     0.181   TRUE     Distric…
#>  9     9  20371.     0           0               0     0.233   TRUE     Distric…
#> 10    10    448.     0           0               0     0.00513 TRUE     Distric…
#> # ℹ 146 more rows

# we don't really need the various extra columns, so let's clean up a bit
(district_seats <- district_seats %>% 
  transmute(party, district, votes, seats))
#> # A tibble: 156 × 4
#>    party district     votes seats
#>    <int> <chr>        <dbl> <int>
#>  1     1 District 1 173721.     3
#>  2     2 District 1 101557.     1
#>  3     3 District 1  73439.     1
#>  4     4 District 1  91939.     1
#>  5     5 District 1 112007.     1
#>  6     6 District 1  95275.     1
#>  7     7 District 1  12737.     0
#>  8     8 District 1  15784.     0
#>  9     9 District 1  20371.     0
#> 10    10 District 1    448.     0
#> # ℹ 146 more rows
```
…
